{
  "images" : [
    {
      "idiom" : "universal",
      "filename" : "gray_double_tick_ico-2.png",
      "scale" : "1x"
    },
    {
      "idiom" : "universal",
      "filename" : "gray_double_tick_ico-1.png",
      "appearances" : [
        {
          "appearance" : "luminosity",
          "value" : "light"
        }
      ],
      "scale" : "1x"
    },
    {
      "idiom" : "universal",
      "filename" : "white_double_ico-1.png",
      "appearances" : [
        {
          "appearance" : "luminosity",
          "value" : "dark"
        }
      ],
      "scale" : "1x"
    },
    {
      "idiom" : "universal",
      "filename" : "gray_double_tick_ico@2x-2.png",
      "scale" : "2x"
    },
    {
      "idiom" : "universal",
      "filename" : "gray_double_tick_ico@2x-1.png",
      "appearances" : [
        {
          "appearance" : "luminosity",
          "value" : "light"
        }
      ],
      "scale" : "2x"
    },
    {
      "idiom" : "universal",
      "filename" : "white_double_ico@2x-1.png",
      "appearances" : [
        {
          "appearance" : "luminosity",
          "value" : "dark"
        }
      ],
      "scale" : "2x"
    },
    {
      "idiom" : "universal",
      "filename" : "gray_double_tick_ico@3x-2.png",
      "scale" : "3x"
    },
    {
      "idiom" : "universal",
      "filename" : "gray_double_tick_ico@3x-1.png",
      "appearances" : [
        {
          "appearance" : "luminosity",
          "value" : "light"
        }
      ],
      "scale" : "3x"
    },
    {
      "idiom" : "universal",
      "filename" : "white_double_ico@3x-1.png",
      "appearances" : [
        {
          "appearance" : "luminosity",
          "value" : "dark"
        }
      ],
      "scale" : "3x"
    }
  ],
  "info" : {
    "version" : 1,
    "author" : "xcode"
  }
}