{
  "images" : [
    {
      "idiom" : "universal",
      "filename" : "booked_call_ico.png",
      "scale" : "1x"
    },
    {
      "idiom" : "universal",
      "filename" : "booked_call_ico-1.png",
      "appearances" : [
        {
          "appearance" : "luminosity",
          "value" : "light"
        }
      ],
      "scale" : "1x"
    },
    {
      "idiom" : "universal",
      "filename" : "booked_call_ico_w-1.png",
      "appearances" : [
        {
          "appearance" : "luminosity",
          "value" : "dark"
        }
      ],
      "scale" : "1x"
    },
    {
      "idiom" : "universal",
      "filename" : "booked_call_ico@2x.png",
      "scale" : "2x"
    },
    {
      "idiom" : "universal",
      "filename" : "booked_call_ico@2x-1.png",
      "appearances" : [
        {
          "appearance" : "luminosity",
          "value" : "light"
        }
      ],
      "scale" : "2x"
    },
    {
      "idiom" : "universal",
      "filename" : "booked_call_ico_w@2x-1.png",
      "appearances" : [
        {
          "appearance" : "luminosity",
          "value" : "dark"
        }
      ],
      "scale" : "2x"
    },
    {
      "idiom" : "universal",
      "filename" : "booked_call_ico@3x.png",
      "scale" : "3x"
    },
    {
      "idiom" : "universal",
      "filename" : "booked_call_ico@3x-1.png",
      "appearances" : [
        {
          "appearance" : "luminosity",
          "value" : "light"
        }
      ],
      "scale" : "3x"
    },
    {
      "idiom" : "universal",
      "filename" : "booked_call_ico_w@3x-1.png",
      "appearances" : [
        {
          "appearance" : "luminosity",
          "value" : "dark"
        }
      ],
      "scale" : "3x"
    }
  ],
  "info" : {
    "version" : 1,
    "author" : "xcode"
  }
}